…
> #Checking Each state's AQI Range based on mode
> getmode <- function(v) {
+   uniqv <- unique(v)
+   uniqv[which.max(tabulate(match(v, uniqv)))]
+ }
> statewise_AQI = aq1 %>% group_by(state)  %>% summarize(Range = getmode(AQI_Range))
> statewise_AQI
# A tibble: 34 x 2
   state                Range    
   <chr>                <chr>    
 1 Andhra Pradesh       Good     
 2 Arunachal Pradesh    Good     
 3 Assam                Good     
 4 Bihar                Poor     
 5 Chandigarh           Good     
 6 Chhattisgarh         Good     
 7 Dadra & Nagar Haveli Good     
 8 Daman & Diu          Good     
 9 Delhi                Hazardous
10 Goa                  Good     
# ... with 24 more rows
# i Use `print(n = ...)` to see more rows
…
